{
  "name": "Remoraid",
  "nationalPokedexNumber": 223,
  "primaryType": "water",
  "abilities": [
    "hustle",
    "sniper",
    "h:moody"
  ],
  "baseStats": {
    "hp": 35,
    "attack": 65,
    "defence": 35,
    "special_attack": 65,
    "special_defence": 35,
    "speed": 65
  },
  "behaviour": {
    "moving": {
      "walk": {
        "avoidsLand": true
      },
      "swim": {
        "swimSpeed": 0.15,
        "canSwimInWater": true,
        "canBreatheUnderwater": true
      }
    }
  },
  "catchRate": 190,
  "maleRatio": 0.5,
  "shoulderMountable": false,
  "baseExperienceYield": 60,
  "experienceGroup": "medium_fast",
  "eggCycles": 20,
  "eggGroups": [
    "water_1",
    "water_2"
  ],
  "moves": [
    "1:helpinghand",
    "1:watergun",
    "4:waterpulse",
    "8:focusenergy",
    "12:psybeam",
    "16:aurorabeam",
    "20:bubblebeam",
    "24:lockon",
    "28:bulletseed",
    "30:signalbeam",
    "32:icebeam",
    "36:hydropump",
    "40:soak",
    "44:hyperbeam",
    "egg:acidspray",
    "egg:aurorabeam",
    "egg:entrainment",
    "egg:flail",
    "egg:haze",
    "egg:mudshot",
    "egg:octazooka",
    "egg:rockblast",
    "egg:screech",
    "egg:snore",
    "egg:supersonic",
    "egg:swift",
    "egg:thunderwave",
    "egg:waterpulse",
    "egg:waterspout",
    "tm:assurance",
    "tm:attract",
    "tm:blizzard",
    "tm:bounce",
    "tm:brine",
    "tm:bulletseed",
    "tm:captivate",
    "tm:chargebeam",
    "tm:confide",
    "tm:dive",
    "tm:doubleteam",
    "tm:endure",
    "tm:facade",
    "tm:fireblast",
    "tm:flamethrower",
    "tm:focusenergy",
    "tm:frustration",
    "tm:gunkshot",
    "tm:helpinghand",
    "tm:hiddenpower",
    "tm:hydropump",
    "tm:hyperbeam",
    "tm:icebeam",
    "tm:icywind",
    "tm:incinerate",
    "tm:mudshot",
    "tm:naturalgift",
    "tm:protect",
    "tm:psychic",
    "tm:raindance",
    "tm:rest",
    "tm:return",
    "tm:rockblast",
    "tm:round",
    "tm:scald",
    "tm:screech",
    "tm:secretpower",
    "tm:seedbomb",
    "tm:sleeptalk",
    "tm:smackdown",
    "tm:snore",
    "tm:substitute",
    "tm:sunnyday",
    "tm:surf",
    "tm:swagger",
    "tm:swift",
    "tm:thief",
    "tm:thunderwave",
    "tm:toxic",
    "tm:waterfall",
    "tm:waterpulse",
    "tm:whirlpool",
    "tutor:attract",
    "tutor:aurorabeam",
    "tutor:bounce",
    "tutor:brine",
    "tutor:bubblebeam",
    "tutor:curse",
    "tutor:defensecurl",
    "tutor:dive",
    "tutor:doubleedge",
    "tutor:doubleteam",
    "tutor:endure",
    "tutor:focusenergy",
    "tutor:frustration",
    "tutor:gunkshot",
    "tutor:haze",
    "tutor:hiddenpower",
    "tutor:hyperbeam",
    "tutor:icebeam",
    "tutor:icywind",
    "tutor:lockon",
    "tutor:mimic",
    "tutor:mudslap",
    "tutor:octazooka",
    "tutor:protect",
    "tutor:psybeam",
    "tutor:raindance",
    "tutor:rest",
    "tutor:return",
    "tutor:rockblast",
    "tutor:screech",
    "tutor:seedbomb",
    "tutor:signalbeam",
    "tutor:sleeptalk",
    "tutor:snore",
    "tutor:stringshot",
    "tutor:substitute",
    "tutor:supersonic",
    "tutor:surf",
    "tutor:swagger",
    "tutor:swift",
    "tutor:thief",
    "tutor:thunderwave",
    "tutor:toxic",
    "tutor:watergun",
    "tutor:waterpulse",
    "tutor:whirlpool"
  ],
  "labels": [
    "gen2"
  ],
  "pokedex": [
    "cobblemon.species.remoraid.desc"
  ],
  "evolutions": [
    {
      "id": "remoraid_octillery",
      "variant": "level_up",
      "result": "octillery",
      "consumeHeldItem": false,
      "learnableMoves": [
        "octazooka"
      ],
      "requirements": [
        {
          "variant": "level",
          "minLevel": 25
        }
      ]
    }
  ],
  "baseScale": 1,
  "hitbox": {
    "width": 1,
    "height": 1,
    "fixed": false
  },
  "baseFriendship": 50,
  "evYield": {
    "hp": 0,
    "attack": 0,
    "defence": 0,
    "special_attack": 1,
    "special_defence": 0,
    "speed": 0
  },
  "height": 6,
  "weight": 120,
  "aspects": [],
  "cannotDynamax": false
}