{
  "name": "Mantyke",
  "nationalPokedexNumber": 458,
  "primaryType": "water",
  "secondaryType": "flying",
  "abilities": [
    "swiftswim",
    "waterabsorb",
    "h:waterveil"
  ],
  "baseStats": {
    "hp": 45,
    "attack": 20,
    "defence": 50,
    "special_attack": 60,
    "special_defence": 120,
    "speed": 50
  },
  "catchRate": 25,
  "maleRatio": 0.5,
  "shoulderMountable": false,
  "baseExperienceYield": 69,
  "experienceGroup": "slow",
  "eggCycles": 25,
  "eggGroups": [
    "undiscovered"
  ],
  "moves": [
    "1:bubble",
    "1:tackle",
    "1:watergun",
    "3:supersonic",
    "4:supersonic",
    "7:bubblebeam",
    "8:wingattack",
    "10:bubblebeam",
    "11:confuseray",
    "12:waterpulse",
    "13:headbutt",
    "14:wingattack",
    "16:headbutt",
    "16:wideguard",
    "19:agility",
    "19:waterpulse",
    "20:agility",
    "22:wingattack",
    "23:wideguard",
    "24:bubblebeam",
    "27:takedown",
    "28:headbutt",
    "28:waterpulse",
    "31:takedown",
    "32:agility",
    "32:airslash",
    "36:airslash",
    "36:aquaring",
    "37:confuseray",
    "39:aquaring",
    "40:bounce",
    "44:takedown",
    "46:aquaring",
    "46:bounce",
    "48:hydropump",
    "49:hydropump",
    "egg:amnesia",
    "egg:confuseray",
    "egg:haze",
    "egg:hydropump",
    "egg:mirrorcoat",
    "egg:mudsport",
    "egg:rockslide",
    "egg:signalbeam",
    "egg:slam",
    "egg:splash",
    "egg:tailwind",
    "egg:twister",
    "egg:watersport",
    "egg:wideguard",
    "tm:acrobatics",
    "tm:aerialace",
    "tm:agility",
    "tm:airslash",
    "tm:amnesia",
    "tm:attract",
    "tm:blizzard",
    "tm:bounce",
    "tm:bulldoze",
    "tm:captivate",
    "tm:confide",
    "tm:dive",
    "tm:doubleteam",
    "tm:earthquake",
    "tm:endure",
    "tm:facade",
    "tm:frustration",
    "tm:hail",
    "tm:helpinghand",
    "tm:hiddenpower",
    "tm:hydropump",
    "tm:icebeam",
    "tm:icywind",
    "tm:naturalgift",
    "tm:protect",
    "tm:raindance",
    "tm:rest",
    "tm:return",
    "tm:rockslide",
    "tm:round",
    "tm:scald",
    "tm:secretpower",
    "tm:sleeptalk",
    "tm:snore",
    "tm:substitute",
    "tm:surf",
    "tm:swagger",
    "tm:swift",
    "tm:toxic",
    "tm:waterfall",
    "tm:waterpulse",
    "tm:whirlpool",
    "tutor:aircutter",
    "tutor:bounce",
    "tutor:dive",
    "tutor:headbutt",
    "tutor:helpinghand",
    "tutor:icywind",
    "tutor:mudslap",
    "tutor:signalbeam",
    "tutor:sleeptalk",
    "tutor:snore",
    "tutor:swift",
    "tutor:tailwind",
    "tutor:waterpulse"
  ],
  "labels": [
    "gen4",
    "baby"
  ],
  "pokedex": [
    "cobblemon.species.mantyke.desc"
  ],
  "evolutions": [
    {
      "id": "mantyke_mantine",
      "variant": "level_up",
      "result": "mantine",
      "consumeHeldItem": false,
      "learnableMoves": [],
      "requirements": [
        {
          "variant": "party_member",
          "target": "remoraid",
          "contains": true
        }
      ]
    }
  ],
  "baseScale": 1,
  "hitbox": {
    "width": 1,
    "height": 1,
    "fixed": false
  },
  "baseFriendship": 50,
  "evYield": {
    "hp": 0,
    "attack": 0,
    "defence": 0,
    "special_attack": 0,
    "special_defence": 1,
    "speed": 0
  },
  "height": 10,
  "weight": 650,
  "aspects": [],
  "cannotDynamax": false
}