{
	"format_version": "1.8.0",
	"animations": {
		"animation.exeggcute.ground_idle": {
			"loop": true,
			"animation_length": 4,
			"bones": {
				"egg": {
					"rotation": ["-(math.sin(q.anim_time*90*1)*2)", 0, 0],
					"position": [0, "math.abs(math.sin(q.anim_time*90*1)*0.125)", 0]
				},
				"egg2": {
					"rotation": ["(math.sin(q.anim_time*90*8)*1)", "15-(math.sin(q.anim_time*90*2)*2)", 0],
					"position": [1, "0+math.abs(math.sin(q.anim_time*90*4)*0.25)", 0]
				},
				"egg3": {
					"rotation": [0, -15, "0+(math.sin(q.anim_time*90*3)*2)"],
					"position": [-1, "math.abs(math.sin(q.anim_time*90*3)*0.125)", 0]
				},
				"egg4": {
					"rotation": ["0+math.random(0,(math.sin(q.anim_time*90*1)*1))", -10, "0+math.random(0,(math.sin(q.anim_time*90*1)*1))"],
					"position": [-0.5, 0, 0]
				},
				"egg5": {
					"relative_to": {
						"rotation": "entity"
					},
					"rotation": ["math.sin(q.anim_time*90*3-90)*1", -180, "math.sin(q.anim_time*90*3)*1"],
					"position": [0, "math.abs(math.sin(q.anim_time*90*3)*0.125)", -0.5]
				},
				"egg6": {
					"rotation": ["math.sin(q.anim_time*90*4-90)*2", 10, "math.sin(q.anim_time*90*4)*2"],
					"position": [0.5, 0.2, 0]
				}
			}
		},
		"animation.exeggcute.ground_walk": {
			"loop": true,
			"animation_length": 2,
			"bones": {
				"egg": {
					"rotation": ["12.5-(math.sin(q.anim_time*90*8-40)*8)", 0, "-(math.sin(q.anim_time*90*4-40)*4)"],
					"position": ["-(math.sin(q.anim_time*90*4-40)*0.25)", "0.5+math.abs(math.sin(q.anim_time*90*4-40)*4)", "-math.abs(math.sin(q.anim_time*90*4-40)*1.5)"]
				},
				"egg2": {
					"rotation": ["12.5-(math.sin(q.anim_time*90*8)*8)", 0, "-(math.sin(q.anim_time*90*4)*4)"],
					"position": ["-(math.sin(q.anim_time*90*4)*0.25)", "0.5+math.abs(math.sin(q.anim_time*90*4)*4)", "-math.abs(math.sin(q.anim_time*90*4)*1.5)"]
				},
				"egg3": {
					"rotation": ["12.5-(math.sin(q.anim_time*90*8-20)*8)", 0, "-(math.sin(q.anim_time*90*4-20)*4)"],
					"position": ["-(math.sin(q.anim_time*90*4-20)*0.25)", "0.5+math.abs(math.sin(q.anim_time*90*4-20)*4)", "-math.abs(math.sin(q.anim_time*90*4-20)*1.5)"]
				},
				"egg4": {
					"rotation": ["12.5-(math.sin(q.anim_time*90*8-80)*8)", 0, "-(math.sin(q.anim_time*90*4-80)*4)"],
					"position": ["-(math.sin(q.anim_time*90*4-80)*0.25)", "0.5+math.abs(math.sin(q.anim_time*90*4-80)*4)", "-math.abs(math.sin(q.anim_time*90*4-80)*1.5)"]
				},
				"egg5": {
					"rotation": ["-5+(math.sin(q.anim_time*90*8-100)*8)", 0, "-(math.sin(q.anim_time*90*4-100)*4)"],
					"position": [
						"-(math.sin(q.anim_time*90*4-100)*0.25)",
						"0.5+math.abs(math.sin(q.anim_time*90*4-100)*4)",
						"-math.abs(math.sin(q.anim_time*90*4-100)*1.5)"
					]
				},
				"egg6": {
					"rotation": ["12.5-(math.sin(q.anim_time*90*8-60)*8)", 0, "-(math.sin(q.anim_time*90*4-60)*4)"],
					"position": ["-(math.sin(q.anim_time*90*4-60)*0.25)", "0.5+math.abs(math.sin(q.anim_time*90*4-60)*4)", "-math.abs(math.sin(q.anim_time*90*4-60)*1.5)"]
				},
				"yoke": {
					"position": [0, "-0.5+math.abs(math.sin(q.anim_time*90*4-130)*1.25)", 0]
				}
			}
		},
		"animation.exeggcute.sleep": {
			"loop": true,
			"animation_length": 4,
			"bones": {
				"egg": {
					"rotation": ["-(math.sin(q.anim_time*90*1)*2)", 10, 0],
					"position": [0, "math.abs(math.sin(q.anim_time*90*0.5)*0.125)", 0]
				},
				"eyelid_right": {
					"position": [0, 0, -0.1]
				},
				"eyelid_left": {
					"position": [0, 0, -0.1]
				},
				"egg2": {
					"rotation": ["-(math.sin(q.anim_time*90*1-30)*2)", 32.5, 0],
					"position": [1, "math.abs(math.sin(q.anim_time*90*0.5)*0.125)", 0.5]
				},
				"eyelid_right2": {
					"position": [0, 0, -0.1]
				},
				"eyelid_left2": {
					"position": [0, 0, -0.1]
				},
				"egg3": {
					"rotation": ["-(math.sin(q.anim_time*90*1-60)*2)", -32.5, 0],
					"position": [-1, "math.abs(math.sin(q.anim_time*90*0.5)*0.125)", 1]
				},
				"eyelid_right3": {
					"position": [0, 0, -0.1]
				},
				"eyelid_left3": {
					"position": [0, 0, -0.1]
				},
				"egg4": {
					"rotation": ["-(math.sin(q.anim_time*90*1-90)*2)", -105, 0],
					"position": [-1, "math.abs(math.sin(q.anim_time*90*0.5)*0.125)", 1]
				},
				"eyelid_right4": {
					"position": [0, 0, -0.1]
				},
				"eyelid_left4": {
					"position": [0, 0, -0.1]
				},
				"egg5": {
					"rotation": ["-(math.sin(q.anim_time*90*1-150)*2)", 187.5, 0],
					"position": [0, "math.abs(math.sin(q.anim_time*90*0.5)*0.125)", -1]
				},
				"eyelid_right5": {
					"position": [0, 0, -0.1]
				},
				"eyelid_left5": {
					"position": [0, 0, -0.1]
				},
				"egg6": {
					"rotation": ["-(math.sin(q.anim_time*90*1-120)*2)", 70, 0],
					"position": [1, "math.abs(math.sin(q.anim_time*90*0.5+120)*0.125)", 0]
				},
				"eyelid_right6": {
					"position": [0, 0, -0.1]
				},
				"eyelid_left6": {
					"position": [0, 0, -0.1]
				}
			}
		},
		"animation.exeggcute.faint": {
			"loop": true,
			"animation_length": 2,
			"bones": {
				"egg": {
					"rotation": {
						"0.0": [
							"0+math.random(-(math.sin(q.anim_time*90*2)*10),(math.sin(q.anim_time*90*2)*10))",
							0,
							"0+math.random(-(math.sin(q.anim_time*90*2)*10),(math.sin(q.anim_time*90*2)*10))"
						],
						"0.5": [-5, 0, 0],
						"0.625": [67.5, 0, 0],
						"0.7083": [75, 0, 0],
						"0.7917": [90, 0, 0],
						"0.8333": [95, 0, 0],
						"0.9167": [87.5, 0, 0],
						"1.0417": [90, 0, 0]
					},
					"position": {
						"0.0": [0, 0, 0],
						"0.5": [0, 0, 0],
						"0.5417": [0, 3, -1],
						"0.7083": [0, 3.5, -1.5],
						"0.7917": [0, 3, -2.5],
						"0.8333": [0, 4, -3.25],
						"0.9583": [0, 3.5, -3.75],
						"1.0417": [0, 3, -4],
						"1.25": [0, 3, -4.5]
					}
				},
				"eye_right": {
					"rotation": [0, 0, 27.5]
				},
				"eyelid_right": {
					"position": {
						"0.0": [0, 0, 0],
						"0.25": [0, 0, 0],
						"0.2917": [0, 0, -0.1]
					}
				},
				"eye_left": {
					"rotation": [0, 0, -27.5]
				},
				"eyelid_left": {
					"position": {
						"0.0": [0, 0, 0],
						"0.25": [0, 0, 0],
						"0.2917": [0, 0, -0.1]
					}
				},
				"egg2": {
					"rotation": {
						"0.0": [
							"0+math.random(-(math.sin(q.anim_time*90*2)*10),(math.sin(q.anim_time*90*2)*10))",
							15,
							"0+math.random(-(math.sin(q.anim_time*90*2)*10),(math.sin(q.anim_time*90*2)*10))"
						],
						"0.4167": [-5, 15, 0],
						"0.5417": [67.5, 15, 0],
						"0.625": [75, 15, 0],
						"0.7083": [90, 15, 0],
						"0.75": [95, 15, 0],
						"0.8333": [87.5, 15, 0],
						"0.9583": [90, 15, 0]
					},
					"position": {
						"0.0": [1, 0, 0],
						"0.4167": [1, 0, 0],
						"0.4583": [1, 3, -1],
						"0.625": [1, 3.5, -1.5],
						"0.7083": [1, 3, -2.5],
						"0.75": [1, 4, -3.25],
						"0.875": [1, 3.5, -3.75],
						"0.9583": [1, 3, -4],
						"1.1667": [1, 3, -4.5]
					}
				},
				"eye_right2": {
					"rotation": [0, 0, 27.5]
				},
				"eyelid_right2": {
					"position": {
						"0.0": [0, 0, 0],
						"0.25": [0, 0, 0],
						"0.2917": [0, 0, -0.1]
					}
				},
				"eye_left2": {
					"rotation": [0, 0, -27.5]
				},
				"eyelid_left2": {
					"position": {
						"0.0": [0, 0, 0],
						"0.25": [0, 0, 0],
						"0.2917": [0, 0, -0.1]
					}
				},
				"egg3": {
					"rotation": {
						"0.0": [
							"0+math.random(-(math.sin(q.anim_time*90*2)*10),(math.sin(q.anim_time*90*2)*10))",
							-15,
							"0+math.random(-(math.sin(q.anim_time*90*2)*10),(math.sin(q.anim_time*90*2)*10))"
						],
						"0.4583": [-5, -15, 0],
						"0.5833": [67.5, -15, 0],
						"0.6667": [75, -15, 0],
						"0.75": [90, -15, 0],
						"0.7917": [95, -15, 0],
						"0.875": [87.5, -15, 0],
						"1.0": [90, -15, 0]
					},
					"position": {
						"0.0": [-1, 0, 0],
						"0.4583": [-1, 0, 0],
						"0.5417": [-1, 3, -1],
						"0.6667": [-1, 3.5, -1.5],
						"0.75": [-1, 3, -2.5],
						"0.7917": [-1, 4, -3.25],
						"0.9167": [-1, 3.5, -3.75],
						"1.0": [-1, 3, -4],
						"1.2083": [-1, 3, -4.5]
					}
				},
				"eye_right3": {
					"rotation": [0, 0, 27.5],
					"position": [-0.1, 0, 0]
				},
				"eyelid_right3": {
					"position": {
						"0.0": [0, 0, 0],
						"0.25": [0, 0, 0],
						"0.2917": [0, 0, -0.1]
					}
				},
				"eye_left3": {
					"rotation": [0, 0, -27.5],
					"position": [0.1, 0, 0]
				},
				"eyelid_left3": {
					"position": {
						"0.0": [0, 0, 0],
						"0.25": [0, 0, 0],
						"0.2917": [0, 0, -0.1]
					}
				},
				"egg4": {
					"rotation": {
						"0.0": [
							"0+math.random(-(math.sin(q.anim_time*90*2)*10),(math.sin(q.anim_time*90*2)*10))",
							-10,
							"0+math.random(-(math.sin(q.anim_time*90*2)*10),(math.sin(q.anim_time*90*2)*10))"
						],
						"0.5833": [-5, -10, 0],
						"0.7083": [67.5, -10, 0],
						"0.7917": [75, -10, 0],
						"0.875": [90, -10, 0],
						"0.9167": [95, -10, 0],
						"1.0": [87.5, -10, 0],
						"1.125": [90, -10, 0]
					},
					"position": {
						"0.0": [-0.5, 0, 0],
						"0.5833": [-0.5, 0, 0],
						"0.6667": [-0.5, 3, -1],
						"0.7917": [-0.5, 3.5, -1.5],
						"0.875": [-0.5, 3, -2.5],
						"0.9167": [-0.5, 4, -3.25],
						"1.0417": [-0.5, 3.5, -3.75],
						"1.125": [-0.5, 3, -4],
						"1.3333": [-0.5, 3, -4.5]
					}
				},
				"eye_right4": {
					"rotation": [0, 0, 10],
					"position": [-0.1, 0, 0]
				},
				"eyelid_right4": {
					"position": {
						"0.0": [0, 0, 0],
						"0.25": [0, 0, 0],
						"0.2917": [0, 0, -0.1]
					}
				},
				"eye_left4": {
					"rotation": [0, 0, -10],
					"position": [0.1, 0, 0]
				},
				"eyelid_left4": {
					"position": {
						"0.0": [0, 0, 0],
						"0.25": [0, 0, 0],
						"0.2917": [0, 0, -0.1]
					}
				},
				"egg5": {
					"rotation": {
						"0.0": [
							"0+math.random(-(math.sin(q.anim_time*90*2)*10),(math.sin(q.anim_time*90*2)*10))",
							10,
							"0+math.random(-(math.sin(q.anim_time*90*2)*10),(math.sin(q.anim_time*90*2)*10))"
						],
						"0.5417": [-5, 10, 0],
						"0.6667": [67.5, 10, 0],
						"0.75": [75, 10, 0],
						"0.8333": [90, 10, 0],
						"0.875": [95, 10, 0],
						"0.9583": [87.5, 10, 0],
						"1.0833": [90, 10, 0]
					},
					"position": {
						"0.0": [0.5, 0, 0],
						"0.5417": [0.5, 0, 0],
						"0.625": [0.5, 3, -1],
						"0.75": [0.5, 3.5, -1.5],
						"0.8333": [0.5, 3, -2.5],
						"0.875": [0.5, 4, -3.25],
						"1.0": [0.5, 3.5, -3.75],
						"1.0833": [0.5, 3, -4],
						"1.2917": [0.5, 3, -4.5]
					}
				},
				"eye_right5": {
					"rotation": [0, 0, 27.5],
					"position": [-0.1, 0, 0]
				},
				"eyelid_right5": {
					"position": {
						"0.0": [0, 0, 0],
						"0.25": [0, 0, 0],
						"0.2917": [0, 0, -0.1]
					}
				},
				"eye_left5": {
					"rotation": [0, 0, -27.5],
					"position": [0.1, 0, 0]
				},
				"eyelid_left5": {
					"position": {
						"0.0": [0, 0, 0],
						"0.25": [0, 0, 0],
						"0.2917": [0, 0, -0.1]
					}
				},
				"egg6": {
					"rotation": {
						"0.0": [
							"0+math.random(-(math.sin(q.anim_time*90*2)*10),(math.sin(q.anim_time*90*2)*10))",
							10,
							"0+math.random(-(math.sin(q.anim_time*90*2)*10),(math.sin(q.anim_time*90*2)*10))"
						],
						"0.5417": [-5, 10, 0],
						"0.6667": [67.5, 10, 0],
						"0.75": [75, 10, 0],
						"0.8333": [90, 10, 0],
						"0.875": [95, 10, 0],
						"0.9583": [87.5, 10, 0],
						"1.0833": [90, 10, 0]
					},
					"position": {
						"0.0": [0.5, 0, 0],
						"0.5417": [0.5, 0, 0],
						"0.5833": [0.5, 3, -1],
						"0.75": [0.5, 3.5, -1.5],
						"0.8333": [0.5, 3, -2.5],
						"0.875": [0.5, 4, -3.25],
						"1.0": [0.5, 3.5, -3.75],
						"1.0833": [0.5, 3, -4],
						"1.2917": [0.5, 3, -4.5]
					}
				},
				"yoke": {
					"rotation": {
						"0.0": [
							"0+math.random(-(math.sin(q.anim_time*90*2)*10),(math.sin(q.anim_time*90*2)*7))",
							0,
							"0+math.random(-(math.sin(q.anim_time*90*2)*10),(math.sin(q.anim_time*90*2)*7))"
						],
						"0.625": [0, 0, 0],
						"0.7083": [2.5, 0, 0],
						"0.8333": [0, 0, 0]
					},
					"position": {
						"0.0": [0, 0, 0],
						"0.8333": [0, 0, 0],
						"0.9167": [0, 0, -0.4],
						"0.9583": [0, 0, 0.4],
						"1.0417": [0, 0, 0],
						"1.1667": [0, 0, 0.4],
						"1.375": [0, 0.4, 0.4],
						"1.625": [0, 0.6, 0.4],
						"1.8333": [0, 0.7, 0.4]
					}
				},
				"eye_right6": {
					"rotation": [0, 0, 27.5],
					"position": [-0.05, 0, 0]
				},
				"eyelid_right6": {
					"position": {
						"0.0": [0, 0, 0],
						"0.25": [0, 0, 0],
						"0.2917": [0, 0, -0.1]
					}
				},
				"eye_left6": {
					"rotation": [0, 0, -27.5],
					"position": [0.05, 0, 0]
				},
				"eyelid_left6": {
					"position": {
						"0.0": [0, 0, 0],
						"0.25": [0, 0, 0],
						"0.2917": [0, 0, -0.1]
					}
				}
			}
		},
		"animation.exeggcute.blink": {
			"animation_length": 0.16667,
			"bones": {
				"eyelid_right": {
					"position": {
						"0.0": [0, 0, -0.1],
						"0.125": [0, 0, -0.1],
						"0.1667": [0, 0, 0]
					}
				},
				"eyelid_left": {
					"position": {
						"0.0": [0, 0, -0.1],
						"0.125": [0, 0, -0.1],
						"0.1667": [0, 0, 0]
					}
				}
			}
		},
		"animation.exeggcute.blink2": {
			"animation_length": 0.1667,
			"bones": {
				"eyelid_right2": {
					"position": {
						"0.0": [0, 0, -0.1],
						"0.125": [0, 0, -0.1],
						"0.1667": [0, 0, 0]
					}
				},
				"eyelid_left2": {
					"position": {
						"0.0": [0, 0, -0.1],
						"0.125": [0, 0, -0.1],
						"0.1667": [0, 0, 0]
					}
				}
			}
		},
		"animation.exeggcute.blink3": {
			"animation_length": 0.16667,
			"bones": {
				"eyelid_right3": {
					"position": {
						"0.0": [0, 0, -0.1],
						"0.125": [0, 0, -0.1],
						"0.1667": [0, 0, 0]
					}
				},
				"eyelid_left3": {
					"position": {
						"0.0": [0, 0, -0.1],
						"0.125": [0, 0, -0.1],
						"0.1667": [0, 0, 0]
					}
				}
			}
		},
		"animation.exeggcute.blink4": {
			"animation_length": 0.16667,
			"bones": {
				"eyelid_right4": {
					"position": {
						"0.0": [0, 0, -0.1],
						"0.125": [0, 0, -0.1],
						"0.1667": [0, 0, 0]
					}
				},
				"eyelid_left4": {
					"position": {
						"0.0": [0, 0, -0.1],
						"0.125": [0, 0, -0.1],
						"0.1667": [0, 0, 0]
					}
				}
			}
		},
		"animation.exeggcute.blink5": {
			"animation_length": 0.16667,
			"bones": {
				"eyelid_right6": {
					"position": {
						"0.0": [0, 0, -0.1],
						"0.125": [0, 0, -0.1],
						"0.1667": [0, 0, 0]
					}
				},
				"eyelid_left6": {
					"position": {
						"0.0": [0, 0, -0.1],
						"0.125": [0, 0, -0.1],
						"0.1667": [0, 0, 0]
					}
				}
			}
		},
		"animation.exeggcute.blink6": {
			"animation_length": 0.16667,
			"bones": {
				"eyelid_right5": {
					"position": {
						"0.0": [0, 0, -0.1],
						"0.125": [0, 0, -0.1],
						"0.1667": [0, 0, 0]
					}
				},
				"eyelid_left5": {
					"position": {
						"0.0": [0, 0, -0.1],
						"0.125": [0, 0, -0.1],
						"0.1667": [0, 0, 0]
					}
				}
			}
		}
	}
}