{
	"format_version": "1.12.0",
	"minecraft:geometry": [
		{
			"description": {
				"identifier": "geometry.ambipom",
				"texture_width": 128,
				"texture_height": 128,
				"visible_bounds_width": 8,
				"visible_bounds_height": 4.5,
				"visible_bounds_offset": [0, 1.75, 0]
			},
			"bones": [
				{
					"name": "ambipom",
					"pivot": [0, -1, 0]
				},
				{
					"name": "body",
					"parent": "ambipom",
					"pivot": [0, 9.25, 0],
					"cubes": [
						{"origin": [-3, 10, -3], "size": [6, 6, 6], "uv": [35, 31]}
					]
				},
				{
					"name": "upper_body",
					"parent": "body",
					"pivot": [0, 17, 0],
					"cubes": [
						{"origin": [-2.5, 15.5, -2.5], "size": [5, 5, 5], "uv": [38, 15]},
						{"origin": [-1, 17.5, -2.5], "size": [2, 1, 0], "inflate": 0.01, "uv": [0, 68]}
					]
				},
				{
					"name": "left_upper_arm",
					"parent": "upper_body",
					"pivot": [2.5, 20, 0],
					"cubes": [
						{"origin": [2.5, 18, -1], "size": [6, 2, 2], "uv": [59, 17]}
					]
				},
				{
					"name": "left_lower_arm",
					"parent": "left_upper_arm",
					"pivot": [8.5, 19, 1],
					"cubes": [
						{"origin": [8.5, 17.5, -1.5], "size": [7, 3, 3], "inflate": 0.01, "uv": [54, 10]}
					]
				},
				{
					"name": "left_hand",
					"parent": "left_lower_arm",
					"pivot": [15.5, 19, 0],
					"cubes": [
						{"origin": [15, 18, -1], "size": [2, 2, 2], "inflate": 0.01, "uv": [0, 20]}
					]
				},
				{
					"name": "right_upper_arm",
					"parent": "upper_body",
					"pivot": [-2.5, 20, 0],
					"cubes": [
						{"origin": [-8.5, 18, -1], "size": [6, 2, 2], "uv": [59, 17], "mirror": true}
					]
				},
				{
					"name": "right_lower_arm",
					"parent": "right_upper_arm",
					"pivot": [-8.5, 19, 1],
					"cubes": [
						{"origin": [-15.5, 17.5, -1.5], "size": [7, 3, 3], "inflate": 0.01, "uv": [54, 10], "mirror": true}
					]
				},
				{
					"name": "right_hand",
					"parent": "right_lower_arm",
					"pivot": [-15.5, 19, 0],
					"cubes": [
						{"origin": [-17, 18, -1], "size": [2, 2, 2], "inflate": 0.01, "uv": [0, 20], "mirror": true}
					]
				},
				{
					"name": "neck",
					"parent": "upper_body",
					"pivot": [0, 20.5, 0],
					"cubes": [
						{"origin": [-2, 19.5, -2], "size": [4, 4, 4], "uv": [44, 57]}
					]
				},
				{
					"name": "head",
					"parent": "neck",
					"pivot": [0, 22, -0.5],
					"cubes": [
						{"origin": [-6, 22, -4.5], "size": [12, 10, 9], "uv": [0, 0]},
						{"origin": [2.25, 25, -4.5], "size": [3, 4, 0], "inflate": 0.01, "uv": [0, 25]},
						{"origin": [-5.25, 25, -4.5], "size": [3, 4, 0], "inflate": 0.01, "uv": [0, 25], "mirror": true}
					]
				},
				{
					"name": "left_ear",
					"parent": "head",
					"pivot": [6, 25, -0.5],
					"rotation": [0, -22.5, 0],
					"cubes": [
						{"origin": [5, 23, -0.5], "size": [5, 9, 0], "pivot": [6, 25, -0.5], "rotation": [0, 0, 22.5], "uv": [13, 61]}
					]
				},
				{
					"name": "right_ear",
					"parent": "head",
					"pivot": [-6, 25, -0.5],
					"rotation": [0, 22.5, 0],
					"cubes": [
						{"origin": [-10, 23, -0.5], "size": [5, 9, 0], "pivot": [-6, 25, -0.5], "rotation": [0, 0, -22.5], "uv": [13, 61], "mirror": true}
					]
				},
				{
					"name": "eyes",
					"parent": "head",
					"pivot": [0, 21, -1]
				},
				{
					"name": "open",
					"parent": "eyes",
					"pivot": [0, 21, -1]
				},
				{
					"name": "left_eye",
					"parent": "open",
					"pivot": [3.25, 26.75, -4.5],
					"cubes": [
						{"origin": [2.75, 25.5, -4.5], "size": [2, 3, 0], "inflate": 0.015, "uv": [34, 0]},
						{"origin": [3.25, 26.75, -4.5], "size": [1, 1, 0], "inflate": 0.02, "uv": [0, 48]}
					]
				},
				{
					"name": "right_eye",
					"parent": "open",
					"pivot": [-3.25, 26.75, -4.5],
					"cubes": [
						{"origin": [-4.75, 25.5, -4.5], "size": [2, 3, 0], "inflate": 0.015, "uv": [34, 0], "mirror": true},
						{"origin": [-4.25, 26.75, -4.5], "size": [1, 1, 0], "inflate": 0.02, "uv": [0, 48], "mirror": true}
					]
				},
				{
					"name": "closed_happy",
					"parent": "eyes",
					"pivot": [0, 26, -0.9],
					"cubes": [
						{"origin": [3.25, 26.5, -4.4], "size": [2, 1, 0], "inflate": 0.015, "uv": [34, 7]},
						{"origin": [-5.25, 26.5, -4.4], "size": [2, 1, 0], "inflate": 0.015, "uv": [34, 7], "mirror": true},
						{"origin": [2.25, 26, -4.4], "size": [1, 1, 0], "inflate": 0.015, "uv": [47, 29]},
						{"origin": [-3.25, 26, -4.4], "size": [1, 1, 0], "inflate": 0.015, "uv": [47, 29], "mirror": true}
					]
				},
				{
					"name": "closed_exhausted",
					"parent": "eyes",
					"pivot": [0.75, 26.25, -0.9],
					"cubes": [
						{"origin": [3.25, 26.25, -4.4], "size": [2, 1, 0], "inflate": 0.015, "uv": [31, 24]},
						{"origin": [-5.25, 26.25, -4.4], "size": [2, 1, 0], "inflate": 0.015, "uv": [31, 24], "mirror": true},
						{"origin": [2.25, 26.75, -4.4], "size": [1, 1, 0], "inflate": 0.015, "uv": [30, 46]},
						{"origin": [-3.25, 26.75, -4.4], "size": [1, 1, 0], "inflate": 0.015, "uv": [30, 46], "mirror": true}
					]
				},
				{
					"name": "mouth",
					"parent": "head",
					"pivot": [0, 21, -1]
				},
				{
					"name": "grin",
					"parent": "mouth",
					"pivot": [0, 23, -4.5],
					"cubes": [
						{"origin": [0.25, 22.25, -4.5], "size": [1, 2, 0], "inflate": 0.01, "uv": [45, 47]},
						{"origin": [-1.25, 22.25, -4.5], "size": [1, 2, 0], "inflate": 0.01, "uv": [42, 47]},
						{"origin": [1.75, 22.75, -4.5], "size": [1, 2, 0], "inflate": 0.01, "uv": [45, 44]},
						{"origin": [-2.75, 22.75, -4.5], "size": [1, 2, 0], "inflate": 0.01, "uv": [42, 44]},
						{"origin": [-0.5, 22.25, -4.5], "size": [1, 2, 0], "inflate": 0.005, "uv": [33, 44]},
						{"origin": [1.25, 22.75, -4.5], "size": [1, 2, 0], "inflate": 0.005, "uv": [30, 43]},
						{"origin": [-2.25, 22.75, -4.5], "size": [1, 2, 0], "inflate": 0.005, "uv": [30, 40]}
					]
				},
				{
					"name": "frown",
					"parent": "mouth",
					"pivot": [0, 23.9, -4.4],
					"rotation": [0, 0, -180],
					"cubes": [
						{"origin": [0.25, 23.05, -4.4], "size": [1, 2, 0], "inflate": 0.01, "uv": [39, 6]},
						{"origin": [-1.25, 23.05, -4.4], "size": [1, 2, 0], "inflate": 0.01, "uv": [39, 3]},
						{"origin": [1.75, 23.55, -4.4], "size": [1, 2, 0], "inflate": 0.01, "uv": [39, 0]},
						{"origin": [-2.75, 23.55, -4.4], "size": [1, 2, 0], "inflate": 0.01, "uv": [31, 37]},
						{"origin": [-0.5, 23.05, -4.4], "size": [1, 2, 0], "inflate": 0.005, "uv": [28, 37]},
						{"origin": [1.25, 23.55, -4.4], "size": [1, 2, 0], "inflate": 0.005, "uv": [25, 37]},
						{"origin": [-2.25, 23.55, -4.4], "size": [1, 2, 0], "inflate": 0.005, "uv": [7, 25]}
					]
				},
				{
					"name": "closed_grin",
					"parent": "mouth",
					"pivot": [0, 21.25, -0.8],
					"cubes": [
						{"origin": [-1.5, 22.75, -4.3], "size": [3, 1, 0], "inflate": 0.01, "uv": [31, 22]},
						{"origin": [-2.5, 23.25, -4.3], "size": [1, 1, 0], "inflate": 0.01, "uv": [44, 29]},
						{"origin": [1.5, 23.25, -4.3], "size": [1, 1, 0], "inflate": 0.01, "uv": [41, 29]}
					]
				},
				{
					"name": "closed_frown",
					"parent": "mouth",
					"pivot": [0, 23.08333, -4.4],
					"rotation": [0, 0, -180],
					"cubes": [
						{"origin": [-1.5, 22.25, -4.4], "size": [3, 1, 0], "inflate": 0.01, "uv": [31, 20]},
						{"origin": [-2.5, 22.75, -4.4], "size": [1, 1, 0], "inflate": 0.01, "uv": [7, 28]},
						{"origin": [1.5, 22.75, -4.4], "size": [1, 1, 0], "inflate": 0.01, "uv": [7, 20]}
					]
				},
				{
					"name": "bangs",
					"parent": "head",
					"pivot": [0, 31.5, -4.5],
					"rotation": [-7.5, 0, 0],
					"cubes": [
						{"origin": [-6, 29.5, -4.5], "size": [12, 2, 0], "uv": [31, 26]}
					]
				},
				{
					"name": "nose",
					"parent": "head",
					"pivot": [0, 26, -4.5],
					"cubes": [
						{"origin": [-1, 25, -4.5], "size": [2, 2, 0], "inflate": 0.01, "pivot": [0, 26, -4.5], "rotation": [0, 0, 45], "uv": [34, 4]}
					]
				},
				{
					"name": "female_hair",
					"parent": "head",
					"pivot": [0, 32, 0]
				},
				{
					"name": "left_hair_tuft",
					"parent": "female_hair",
					"pivot": [0, 32, 0],
					"rotation": [0, 0, 30],
					"cubes": [
						{"origin": [0, 32, -1.5], "size": [0, 7, 3], "uv": [63, 67]}
					]
				},
				{
					"name": "left_hair_tuft_tip",
					"parent": "left_hair_tuft",
					"pivot": [0, 39, 0],
					"rotation": [0, 0, 30],
					"cubes": [
						{"origin": [0, 39, -1.5], "size": [0, 7, 3], "uv": [0, 67]}
					]
				},
				{
					"name": "right_hair_tuft",
					"parent": "female_hair",
					"pivot": [0, 32, 0],
					"rotation": [0, 0, -30],
					"cubes": [
						{"origin": [0, 32, -1.5], "size": [0, 7, 3], "uv": [63, 67], "mirror": true}
					]
				},
				{
					"name": "right_hair_tuft_tip",
					"parent": "right_hair_tuft",
					"pivot": [0, 39, 0],
					"rotation": [0, 0, -30],
					"cubes": [
						{"origin": [0, 39, -1.5], "size": [0, 7, 3], "uv": [0, 67], "mirror": true}
					]
				},
				{
					"name": "male_hair",
					"parent": "head",
					"pivot": [0, 32, 0]
				},
				{
					"name": "left_hair_tuft2",
					"parent": "male_hair",
					"pivot": [0, 32, 0],
					"rotation": [0, 0, 30]
				},
				{
					"name": "left_hair_tuft_tip2",
					"parent": "left_hair_tuft2",
					"pivot": [0, 37, 0],
					"rotation": [0, 0, 30]
				},
				{
					"name": "right_hair_tuft2",
					"parent": "male_hair",
					"pivot": [0, 32, 0],
					"rotation": [0, 0, -30]
				},
				{
					"name": "right_hair_tuft_tip2",
					"parent": "right_hair_tuft2",
					"pivot": [0, 37, 0],
					"rotation": [0, 0, -30]
				},
				{
					"name": "tail_left",
					"parent": "body",
					"pivot": [0.75, 11, 2],
					"rotation": [0, 22.5, 0],
					"cubes": [
						{"origin": [-0.25, 10, 2], "size": [2, 2, 7], "inflate": 0.02, "uv": [12, 51]}
					]
				},
				{
					"name": "tail_left2",
					"parent": "tail_left",
					"pivot": [0.75, 11, 8.5],
					"cubes": [
						{"origin": [-0.25, 10, 8.5], "size": [2, 2, 7], "inflate": 0.01, "uv": [0, 48]}
					]
				},
				{
					"name": "tail_left3",
					"parent": "tail_left2",
					"pivot": [0.75, 11, 15],
					"cubes": [
						{"origin": [-0.25, 10, 15], "size": [2, 2, 7], "uv": [42, 47]}
					]
				},
				{
					"name": "tail_left4",
					"parent": "tail_left3",
					"pivot": [0.75, 11, 21.5],
					"cubes": [
						{"origin": [-0.25, 10, 21.5], "size": [2, 2, 7], "inflate": -0.01, "uv": [30, 44]}
					]
				},
				{
					"name": "tail_left5",
					"parent": "tail_left4",
					"pivot": [0.75, 11, 28],
					"cubes": [
						{"origin": [-0.25, 10, 28], "size": [2, 2, 7], "inflate": -0.02, "uv": [18, 41]}
					]
				},
				{
					"name": "tail_hand_left",
					"parent": "tail_left5",
					"pivot": [0.75, 11, 35],
					"cubes": [
						{"origin": [-4.25, 8, 34.5], "size": [10, 6, 10], "inflate": -0.01, "uv": [0, 20]}
					]
				},
				{
					"name": "left_middle_finger",
					"parent": "tail_hand_left",
					"pivot": [0.75, 10, 44.5],
					"cubes": [
						{"origin": [-0.75, 9.5, 43.5], "size": [3, 3, 3], "uv": [50, 66]}
					]
				},
				{
					"name": "left_middle_finger2",
					"parent": "left_middle_finger",
					"pivot": [0.75, 10, 46.5],
					"cubes": [
						{"origin": [-1.25, 9, 46.5], "size": [4, 4, 4], "inflate": 0.01, "uv": [27, 57]}
					]
				},
				{
					"name": "left_middle_finger_tip",
					"parent": "left_middle_finger2",
					"pivot": [0.75, 10, 49.5],
					"cubes": [
						{"origin": [-0.75, 9.5, 49.5], "size": [3, 3, 3], "uv": [37, 66]}
					]
				},
				{
					"name": "left_outer_finger",
					"parent": "tail_hand_left",
					"pivot": [5.25, 10, 43],
					"rotation": [0, 90, 0],
					"cubes": [
						{"origin": [3.75, 9.5, 42], "size": [3, 3, 3], "uv": [24, 66]}
					]
				},
				{
					"name": "left_outer_finger2",
					"parent": "left_outer_finger",
					"pivot": [5.25, 10, 45],
					"cubes": [
						{"origin": [3.25, 9, 45], "size": [4, 4, 4], "inflate": 0.01, "uv": [54, 26], "mirror": true}
					]
				},
				{
					"name": "left_outer_finger_tip",
					"parent": "left_outer_finger2",
					"pivot": [5.25, 10, 48],
					"cubes": [
						{"origin": [3.75, 9.5, 48], "size": [3, 3, 3], "uv": [62, 0]}
					]
				},
				{
					"name": "left_inner_finger",
					"parent": "tail_hand_left",
					"pivot": [-3.75, 10, 43],
					"rotation": [0, -90, 0],
					"cubes": [
						{"origin": [-5.25, 9.5, 42], "size": [3, 3, 3], "uv": [24, 66], "mirror": true}
					]
				},
				{
					"name": "left_inner_finger2",
					"parent": "left_inner_finger",
					"pivot": [-3.75, 10, 45],
					"cubes": [
						{"origin": [-5.75, 9, 45], "size": [4, 4, 4], "inflate": 0.01, "uv": [54, 26]}
					]
				},
				{
					"name": "left_inner_finger_tip",
					"parent": "left_inner_finger2",
					"pivot": [-3.75, 10, 48],
					"cubes": [
						{"origin": [-5.25, 9.5, 48], "size": [3, 3, 3], "uv": [62, 0], "mirror": true}
					]
				},
				{
					"name": "left_tail_tuft",
					"parent": "tail_left5",
					"pivot": [0.75, 11, 34],
					"cubes": [
						{"origin": [-4.75, 6.25, 34], "size": [11, 9, 0], "uv": [0, 37]},
						{"origin": [-4.75, 10.75, 32], "size": [11, 0, 3], "uv": [4, 73]},
						{"origin": [-3.75, 10.75, 32], "size": [9, 0, 3], "pivot": [0.75, 11, 34], "rotation": [0, 0, 90], "uv": [4, 78]}
					]
				},
				{
					"name": "tail_right",
					"parent": "body",
					"pivot": [-0.75, 11, 2],
					"rotation": [0, -22.5, 0],
					"cubes": [
						{"origin": [-1.75, 10, 2], "size": [2, 2, 7], "inflate": 0.02, "uv": [12, 51], "mirror": true}
					]
				},
				{
					"name": "tail_right2",
					"parent": "tail_right",
					"pivot": [-0.75, 11, 8.5],
					"cubes": [
						{"origin": [-1.75, 10, 8.5], "size": [2, 2, 7], "inflate": 0.01, "uv": [0, 48], "mirror": true}
					]
				},
				{
					"name": "tail_right3",
					"parent": "tail_right2",
					"pivot": [-0.75, 11, 15],
					"cubes": [
						{"origin": [-1.75, 10, 15], "size": [2, 2, 7], "uv": [42, 47], "mirror": true}
					]
				},
				{
					"name": "tail_right4",
					"parent": "tail_right3",
					"pivot": [-0.75, 11, 21.5],
					"cubes": [
						{"origin": [-1.75, 10, 21.5], "size": [2, 2, 7], "inflate": -0.01, "uv": [30, 44], "mirror": true}
					]
				},
				{
					"name": "tail_right5",
					"parent": "tail_right4",
					"pivot": [-0.75, 11, 28],
					"cubes": [
						{"origin": [-1.75, 10, 28], "size": [2, 2, 7], "inflate": -0.02, "uv": [18, 41], "mirror": true}
					]
				},
				{
					"name": "tail_hand_right",
					"parent": "tail_right5",
					"pivot": [-0.75, 11, 35],
					"cubes": [
						{"origin": [-5.75, 8, 34.5], "size": [10, 6, 10], "inflate": -0.02, "uv": [0, 20], "mirror": true}
					]
				},
				{
					"name": "right_middle_finger",
					"parent": "tail_hand_right",
					"pivot": [-0.75, 10, 44.5],
					"cubes": [
						{"origin": [-2.25, 9.5, 43.5], "size": [3, 3, 3], "uv": [50, 66], "mirror": true}
					]
				},
				{
					"name": "right_middle_finger2",
					"parent": "right_middle_finger",
					"pivot": [-0.75, 10, 46.5],
					"cubes": [
						{"origin": [-2.75, 9, 46.5], "size": [4, 4, 4], "inflate": 0.01, "uv": [27, 57], "mirror": true}
					]
				},
				{
					"name": "right_middle_finger_tip",
					"parent": "right_middle_finger2",
					"pivot": [-0.75, 10, 49.5],
					"cubes": [
						{"origin": [-2.25, 9.5, 49.5], "size": [3, 3, 3], "uv": [37, 66], "mirror": true}
					]
				},
				{
					"name": "right_outer_finger",
					"parent": "tail_hand_right",
					"pivot": [-5.25, 10, 43],
					"rotation": [0, -90, 0],
					"cubes": [
						{"origin": [-6.75, 9.5, 42], "size": [3, 3, 3], "uv": [24, 66], "mirror": true}
					]
				},
				{
					"name": "right_outer_finger2",
					"parent": "right_outer_finger",
					"pivot": [-5.25, 10, 45],
					"cubes": [
						{"origin": [-7.25, 9, 45], "size": [4, 4, 4], "inflate": 0.01, "uv": [54, 26]}
					]
				},
				{
					"name": "right_outer_finger_tip",
					"parent": "right_outer_finger2",
					"pivot": [-5.25, 10, 48],
					"cubes": [
						{"origin": [-6.75, 9.5, 48], "size": [3, 3, 3], "uv": [62, 0], "mirror": true}
					]
				},
				{
					"name": "right_inner_finger",
					"parent": "tail_hand_right",
					"pivot": [3.75, 10, 43],
					"rotation": [0, 90, 0],
					"cubes": [
						{"origin": [2.25, 9.5, 42], "size": [3, 3, 3], "uv": [24, 66]}
					]
				},
				{
					"name": "right_inner_finger2",
					"parent": "right_inner_finger",
					"pivot": [3.75, 10, 45],
					"cubes": [
						{"origin": [1.75, 9, 45], "size": [4, 4, 4], "inflate": 0.01, "uv": [54, 26], "mirror": true}
					]
				},
				{
					"name": "right_inner_finger_tip",
					"parent": "right_inner_finger2",
					"pivot": [3.75, 10, 48],
					"cubes": [
						{"origin": [2.25, 9.5, 48], "size": [3, 3, 3], "uv": [62, 0]}
					]
				},
				{
					"name": "right_tail_tuft",
					"parent": "tail_right5",
					"pivot": [-0.75, 11, 34],
					"cubes": [
						{"origin": [-6.25, 6.25, 34], "size": [11, 9, 0], "uv": [0, 37], "mirror": true},
						{"origin": [-6.25, 10.75, 32], "size": [11, 0, 3], "uv": [4, 73], "mirror": true},
						{"origin": [-5.25, 10.75, 32], "size": [9, 0, 3], "pivot": [-0.75, 11, 34], "rotation": [0, 0, -90], "uv": [4, 78], "mirror": true}
					]
				},
				{
					"name": "left_butt_tuft",
					"parent": "body",
					"pivot": [0.5, 12, 3],
					"rotation": [0, 0, 15],
					"cubes": [
						{"origin": [0.5, 10, 3], "size": [9, 9, 0], "pivot": [0.5, 10, 3], "rotation": [0, -15, 0], "uv": [43, 0]}
					]
				},
				{
					"name": "right_butt_tuft",
					"parent": "body",
					"pivot": [-0.5, 12, 3],
					"rotation": [0, 0, -15],
					"cubes": [
						{"origin": [-9.5, 10, 3], "size": [9, 9, 0], "pivot": [-0.5, 10, 3], "rotation": [0, 15, 0], "uv": [43, 0], "mirror": true}
					]
				},
				{
					"name": "left_upper_leg",
					"parent": "ambipom",
					"pivot": [2.25, 11, 0],
					"cubes": [
						{"origin": [0.75, 6, -1.5], "size": [3, 5, 3], "inflate": 0.01, "uv": [0, 58]}
					]
				},
				{
					"name": "left_lower_leg",
					"parent": "left_upper_leg",
					"pivot": [2.25, 6, -1],
					"cubes": [
						{"origin": [1.25, 1, -1], "size": [2, 5, 2], "uv": [0, 0]}
					]
				},
				{
					"name": "left_foot",
					"parent": "left_lower_leg",
					"pivot": [2.25, 2, 0],
					"cubes": [
						{"origin": [0.75, 0, -2.5], "size": [3, 2, 4], "inflate": 0.01, "uv": [57, 53]}
					]
				},
				{
					"name": "left_toes",
					"parent": "left_foot",
					"pivot": [2.25, 1, -2],
					"cubes": [
						{"origin": [0.75, 0, -4], "size": [3, 2, 2], "uv": [43, 10]}
					]
				},
				{
					"name": "right_upper_leg",
					"parent": "ambipom",
					"pivot": [-2.25, 11, 0],
					"cubes": [
						{"origin": [-3.75, 6, -1.5], "size": [3, 5, 3], "inflate": 0.01, "uv": [0, 58], "mirror": true}
					]
				},
				{
					"name": "right_lower_leg",
					"parent": "right_upper_leg",
					"pivot": [-2.25, 6, -1],
					"cubes": [
						{"origin": [-3.25, 1, -1], "size": [2, 5, 2], "uv": [0, 0], "mirror": true}
					]
				},
				{
					"name": "right_foot",
					"parent": "right_lower_leg",
					"pivot": [-2.25, 2, 0],
					"cubes": [
						{"origin": [-3.75, 0, -2.5], "size": [3, 2, 4], "inflate": 0.01, "uv": [57, 53], "mirror": true}
					]
				},
				{
					"name": "right_toes",
					"parent": "right_foot",
					"pivot": [-2.25, 1, -2],
					"cubes": [
						{"origin": [-3.75, 0, -4], "size": [3, 2, 2], "uv": [43, 10], "mirror": true}
					]
				}
			]
		}
	]
}