{
  "name": "Celesteela",
  "nationalPokedexNumber": 797,
  "primaryType": "steel",
  "secondaryType": "flying",
  "abilities": [
    "beastboost"
  ],
  "baseStats": {
    "hp": 97,
    "attack": 101,
    "defence": 103,
    "special_attack": 107,
    "special_defence": 101,
    "speed": 61
  },
  "catchRate": 45,
  "maleRatio": -1,
  "shoulderMountable": false,
  "baseExperienceYield": 285,
  "experienceGroup": "slow",
  "eggCycles": 120,
  "eggGroups": [
    "undiscovered"
  ],
  "moves": [
    "1:absorb",
    "1:airslash",
    "1:tackle",
    "5:harden",
    "10:wideguard",
    "15:megadrain",
    "20:smackdown",
    "25:ingrain",
    "29:ironhead",
    "30:autotomize",
    "35:gigadrain",
    "40:flashcannon",
    "45:metalsound",
    "47:seedbomb",
    "50:irondefense",
    "55:leechseed",
    "60:heavyslam",
    "65:doubleedge",
    "70:skullbash",
    "tm:acrobatics",
    "tm:airslash",
    "tm:bodyslam",
    "tm:brutalswing",
    "tm:bulldoze",
    "tm:confide",
    "tm:doubleteam",
    "tm:earthquake",
    "tm:endure",
    "tm:energyball",
    "tm:explosion",
    "tm:facade",
    "tm:fireblast",
    "tm:flamecharge",
    "tm:flamethrower",
    "tm:flashcannon",
    "tm:fly",
    "tm:frustration",
    "tm:gigadrain",
    "tm:gigaimpact",
    "tm:grassknot",
    "tm:gyroball",
    "tm:heavyslam",
    "tm:hiddenpower",
    "tm:hyperbeam",
    "tm:irondefense",
    "tm:ironhead",
    "tm:megahorn",
    "tm:protect",
    "tm:rest",
    "tm:return",
    "tm:rockslide",
    "tm:round",
    "tm:seedbomb",
    "tm:selfdestruct",
    "tm:sleeptalk",
    "tm:smackdown",
    "tm:smartstrike",
    "tm:snore",
    "tm:solarbeam",
    "tm:stompingtantrum",
    "tm:stoneedge",
    "tm:substitute",
    "tm:superpower",
    "tm:swagger",
    "tm:toxic",
    "tm:zenheadbutt",
    "tutor:autotomize",
    "tutor:block",
    "tutor:earthquake",
    "tutor:gigadrain",
    "tutor:gravity",
    "tutor:gyroball",
    "tutor:irondefense",
    "tutor:ironhead",
    "tutor:leechseed",
    "tutor:magnetrise",
    "tutor:meteorbeam",
    "tutor:seedbomb",
    "tutor:shockwave",
    "tutor:skullbash",
    "tutor:smackdown",
    "tutor:snore",
    "tutor:steelbeam",
    "tutor:steelroller",
    "tutor:stompingtantrum",
    "tutor:superpower",
    "tutor:zenheadbutt"
  ],
  "labels": [
    "gen7",
    "ultra_beast"
  ],
  "pokedex": [
    "cobblemon.species.celesteela.desc"
  ],
  "evolutions": [],
  "baseScale": 1,
  "hitbox": {
    "width": 1,
    "height": 1,
    "fixed": false
  },
  "baseFriendship": 0,
  "evYield": {
    "hp": 0,
    "attack": 1,
    "defence": 1,
    "special_attack": 1,
    "special_defence": 0,
    "speed": 0
  },
  "height": 92,
  "weight": 9999,
  "aspects": [],
  "cannotDynamax": false
}