{
  "name": "Drampa",
  "nationalPokedexNumber": 780,
  "primaryType": "normal",
  "secondaryType": "dragon",
  "abilities": [
    "berserk",
    "sapsipper",
    "h:cloudnine"
  ],
  "baseStats": {
    "hp": 78,
    "attack": 60,
    "defence": 85,
    "special_attack": 135,
    "special_defence": 91,
    "speed": 36
  },
  "catchRate": 70,
  "maleRatio": 0.5,
  "shoulderMountable": false,
  "baseExperienceYield": 170,
  "experienceGroup": "medium_fast",
  "eggCycles": 20,
  "eggGroups": [
    "monster",
    "dragon"
  ],
  "moves": [
    "1:echoedvoice",
    "1:playnice",
    "5:twister",
    "10:protect",
    "15:glare",
    "20:safeguard",
    "21:dragonrage",
    "25:dragonbreath",
    "25:naturalgift",
    "30:extrasensory",
    "35:dragonpulse",
    "40:lightscreen",
    "45:fly",
    "50:hypervoice",
    "55:outrage",
    "egg:dragonrush",
    "egg:hurricane",
    "egg:mist",
    "egg:playrough",
    "egg:razorwind",
    "egg:tickle",
    "tm:amnesia",
    "tm:attract",
    "tm:blizzard",
    "tm:breakingswipe",
    "tm:bulldoze",
    "tm:calmmind",
    "tm:confide",
    "tm:doubleteam",
    "tm:dragonclaw",
    "tm:dragondance",
    "tm:dragonpulse",
    "tm:dragontail",
    "tm:earthquake",
    "tm:echoedvoice",
    "tm:endure",
    "tm:energyball",
    "tm:facade",
    "tm:fireblast",
    "tm:flamethrower",
    "tm:fling",
    "tm:fly",
    "tm:focusblast",
    "tm:frustration",
    "tm:gigaimpact",
    "tm:grassknot",
    "tm:heatwave",
    "tm:helpinghand",
    "tm:hiddenpower",
    "tm:hurricane",
    "tm:hydropump",
    "tm:hyperbeam",
    "tm:hypervoice",
    "tm:icebeam",
    "tm:icywind",
    "tm:lightscreen",
    "tm:naturepower",
    "tm:outrage",
    "tm:playrough",
    "tm:protect",
    "tm:psychup",
    "tm:raindance",
    "tm:rest",
    "tm:return",
    "tm:roar",
    "tm:rockslide",
    "tm:roost",
    "tm:round",
    "tm:safeguard",
    "tm:shadowball",
    "tm:shadowclaw",
    "tm:sleeptalk",
    "tm:snarl",
    "tm:snore",
    "tm:solarbeam",
    "tm:steelwing",
    "tm:stompingtantrum",
    "tm:substitute",
    "tm:sunnyday",
    "tm:superpower",
    "tm:surf",
    "tm:swift",
    "tm:thunder",
    "tm:thunderbolt",
    "tm:thunderwave",
    "tm:toxic",
    "tm:uproar",
    "tm:workup",
    "tutor:block",
    "tutor:defog",
    "tutor:dracometeor",
    "tutor:dragonpulse",
    "tutor:echoedvoice",
    "tutor:endeavor",
    "tutor:heatwave",
    "tutor:helpinghand",
    "tutor:hurricane",
    "tutor:hypervoice",
    "tutor:icywind",
    "tutor:lashout",
    "tutor:outrage",
    "tutor:playnice",
    "tutor:scaleshot",
    "tutor:shockwave",
    "tutor:signalbeam",
    "tutor:snore",
    "tutor:stompingtantrum",
    "tutor:superpower",
    "tutor:tailwind",
    "tutor:uproar",
    "tutor:waterpulse"
  ],
  "labels": [
    "gen7"
  ],
  "pokedex": [
    "cobblemon.species.drampa.desc"
  ],
  "evolutions": [],
  "baseScale": 1,
  "hitbox": {
    "width": 1,
    "height": 1,
    "fixed": false
  },
  "baseFriendship": 50,
  "evYield": {
    "hp": 0,
    "attack": 0,
    "defence": 0,
    "special_attack": 2,
    "special_defence": 0,
    "speed": 0
  },
  "height": 30,
  "weight": 1850,
  "aspects": [],
  "cannotDynamax": false
}