{
  "name": "Spoink",
  "nationalPokedexNumber": 325,
  "primaryType": "psychic",
  "abilities": [
    "thickfat",
    "owntempo",
    "h:gluttony"
  ],
  "baseStats": {
    "hp": 60,
    "attack": 25,
    "defence": 35,
    "special_attack": 70,
    "special_defence": 80,
    "speed": 60
  },
  "catchRate": 255,
  "maleRatio": 0.5,
  "shoulderMountable": false,
  "baseExperienceYield": 66,
  "experienceGroup": "fast",
  "eggCycles": 20,
  "eggGroups": [
    "field"
  ],
  "moves": [
    "1:splash",
    "7:confusion",
    "7:psywave",
    "10:growl",
    "10:odorsleuth",
    "14:psybeam",
    "18:psychup",
    "21:magiccoat",
    "22:confuseray",
    "26:zenheadbutt",
    "29:powergem",
    "29:rest",
    "33:snore",
    "38:psyshock",
    "40:payback",
    "44:psychic",
    "50:bounce",
    "egg:amnesia",
    "egg:endure",
    "egg:extrasensory",
    "egg:futuresight",
    "egg:luckychant",
    "egg:mirrorcoat",
    "egg:simplebeam",
    "egg:skillswap",
    "egg:substitute",
    "egg:trick",
    "egg:whirlwind",
    "egg:zenheadbutt",
    "tm:amnesia",
    "tm:attract",
    "tm:bodyslam",
    "tm:calmmind",
    "tm:captivate",
    "tm:chargebeam",
    "tm:chillingwater",
    "tm:confide",
    "tm:confuseray",
    "tm:dazzlinggleam",
    "tm:doubleteam",
    "tm:dreameater",
    "tm:encore",
    "tm:endure",
    "tm:facade",
    "tm:flash",
    "tm:flashcannon",
    "tm:frustration",
    "tm:grassknot",
    "tm:helpinghand",
    "tm:hiddenpower",
    "tm:icywind",
    "tm:imprison",
    "tm:irontail",
    "tm:lightscreen",
    "tm:naturalgift",
    "tm:nightshade",
    "tm:payback",
    "tm:powergem",
    "tm:protect",
    "tm:psybeam",
    "tm:psychic",
    "tm:psychicterrain",
    "tm:psychup",
    "tm:psyshock",
    "tm:raindance",
    "tm:recycle",
    "tm:reflect",
    "tm:rest",
    "tm:return",
    "tm:round",
    "tm:secretpower",
    "tm:shadowball",
    "tm:shockwave",
    "tm:skillswap",
    "tm:sleeptalk",
    "tm:snarl",
    "tm:snatch",
    "tm:snowscape",
    "tm:storedpower",
    "tm:substitute",
    "tm:sunnyday",
    "tm:swagger",
    "tm:swift",
    "tm:takedown",
    "tm:taunt",
    "tm:telekinesis",
    "tm:terablast",
    "tm:thief",
    "tm:thunderwave",
    "tm:torment",
    "tm:toxic",
    "tm:trailblaze",
    "tm:trick",
    "tm:trickroom",
    "tm:zenheadbutt",
    "tutor:allyswitch",
    "tutor:bodyslam",
    "tutor:bounce",
    "tutor:covet",
    "tutor:doubleedge",
    "tutor:dreameater",
    "tutor:endure",
    "tutor:headbutt",
    "tutor:healbell",
    "tutor:icywind",
    "tutor:irontail",
    "tutor:magiccoat",
    "tutor:mimic",
    "tutor:psychup",
    "tutor:psywave",
    "tutor:recycle",
    "tutor:roleplay",
    "tutor:shockwave",
    "tutor:signalbeam",
    "tutor:skillswap",
    "tutor:sleeptalk",
    "tutor:snatch",
    "tutor:snore",
    "tutor:splash",
    "tutor:substitute",
    "tutor:swagger",
    "tutor:swift",
    "tutor:telekinesis",
    "tutor:trick",
    "tutor:uproar",
    "tutor:zenheadbutt"
  ],
  "labels": [
    "gen3"
  ],
  "pokedex": [
    "cobblemon.species.spoink.desc"
  ],
  "evolutions": [
    {
      "id": "spoink_grumpig",
      "variant": "level_up",
      "result": "grumpig",
      "consumeHeldItem": false,
      "learnableMoves": [
        "teeterdance"
      ],
      "requirements": [
        {
          "variant": "level",
          "minLevel": 32
        }
      ]
    }
  ],
  "baseScale": 1,
  "hitbox": {
    "width": 1,
    "height": 1,
    "fixed": false
  },
  "baseFriendship": 70,
  "evYield": {
    "hp": 0,
    "attack": 0,
    "defence": 0,
    "special_attack": 0,
    "special_defence": 1,
    "speed": 0
  },
  "height": 7,
  "weight": 306,
  "aspects": [],
  "cannotDynamax": false
}